Bikeshare
…
week_predictions

## # A tibble: 25 x 8
##     week          data Regression Prediction Observed Absolute_Error   MAE
##    <dbl> <list<df[,29> <chr>      <list>     <list>   <list>         <dbl>
##  1    13  [2,832 x 29] ATime_FE   <dbl [2,8~ <dbl [2~ <dbl [2,832]>  0.626
##  2    14 [19,588 x 29] ATime_FE   <dbl [19,~ <dbl [1~ <dbl [19,588]> 0.901
##  3    15 [19,706 x 29] ATime_FE   <dbl [19,~ <dbl [1~ <dbl [19,706]> 1.05 
##  4    16 [19,824 x 29] ATime_FE   <dbl [19,~ <dbl [1~ <dbl [19,824]> 0.976
##  5    17 [19,470 x 29] ATime_FE   <dbl [19,~ <dbl [1~ <dbl [19,470]> 1.07 
##  6    13  [2,832 x 29] BSpace_FE  <dbl [2,8~ <dbl [2~ <dbl [2,832]>  0.601
##  7    14 [19,588 x 29] BSpace_FE  <dbl [19,~ <dbl [1~ <dbl [19,588]> 0.824
##  8    15 [19,706 x 29] BSpace_FE  <dbl [19,~ <dbl [1~ <dbl [19,706]> 0.977
##  9    16 [19,824 x 29] BSpace_FE  <dbl [19,~ <dbl [1~ <dbl [19,824]> 0.899
## 10    17 [19,470 x 29] BSpace_FE  <dbl [19,~ <dbl [1~ <dbl [19,470]> 0.989
## # ... with 15 more rows, and 1 more variable: sd_AE <dbl>
…
